{
    "basename": "asr-global_scope1-786a363",
    "cmd": "lfortran --show-asr --no-color {infile} -o {outfile}",
    "infile": "tests/global_scope1.f90",
    "infile_hash": "449b38487b6c79754deedb9991f1867bcf8c67d0d93019c2fe15854c",
    "outfile": null,
    "outfile_hash": null,
    "stdout": "asr-global_scope1-786a363.stdout",
    "stdout_hash": "1ce9d75524b07b255ffb511cf0a7e6fe3e8ceadb35743d794ad51578",
    "stderr": null,
    "stderr_hash": null,
    "returncode": 0
}