{
    "basename": "asr-global_scope6-b11d04e",
    "cmd": "lfortran --show-asr --no-color {infile} -o {outfile}",
    "infile": "tests/global_scope6.f90",
    "infile_hash": "3f2dfa122b78175565b7baa8f4d0417cfb0ed5bbe26bbb5f0f1f6f2e",
    "outfile": null,
    "outfile_hash": null,
    "stdout": "asr-global_scope6-b11d04e.stdout",
    "stdout_hash": "67f5bea317b2088e3e34d81ee0ba945759e2b614f0fdb6056dab1c71",
    "stderr": null,
    "stderr_hash": null,
    "returncode": 0
}