{
    "basename": "asr-fn2-b585098",
    "cmd": "lfortran --show-asr --no-color {infile} -o {outfile}",
    "infile": "tests/fn2.f90",
    "infile_hash": "9f61561c47397aa03014fe07094ac838ada4865e513025e384edae00",
    "outfile": null,
    "outfile_hash": null,
    "stdout": "asr-fn2-b585098.stdout",
    "stdout_hash": "c28927500c75886d963a87565c67e218a4d7138d1b74a53048f1f583",
    "stderr": null,
    "stderr_hash": null,
    "returncode": 0
}