{
    "basename": "asr-subroutine5-e248afc",
    "cmd": "lfortran --show-asr --no-color {infile} -o {outfile}",
    "infile": "tests/subroutine5.f90",
    "infile_hash": "88c62ffd8f005d7a511511e43da68f25e8fe795a75fec462baa25885",
    "outfile": null,
    "outfile_hash": null,
    "stdout": "asr-subroutine5-e248afc.stdout",
    "stdout_hash": "bf02b04807bb33b02dd540b4894908a5ce885817bda15961af172aa1",
    "stderr": null,
    "stderr_hash": null,
    "returncode": 0
}