{
    "basename": "ast-lfortran_intrinsic_math-7438bd6",
    "cmd": "lfortran --show-ast --no-color {infile} -o {outfile}",
    "infile": "tests/../src/runtime/lfortran_intrinsic_math.f90",
    "infile_hash": "99009245a70124eb48b9b2cb5d62f2c6335733a56863f118d8f60bdf",
    "outfile": null,
    "outfile_hash": null,
    "stdout": "ast-lfortran_intrinsic_math-7438bd6.stdout",
    "stdout_hash": "4a5e2cd4c7f85e55af4705eee65c00412f92dc1ce444ab734fc60f92",
    "stderr": null,
    "stderr_hash": null,
    "returncode": 0
}