{
    "basename": "ast-parameter_02-9547a35",
    "cmd": "lfortran --show-ast --no-color {infile} -o {outfile}",
    "infile": "tests/../integration_tests/parameter_02.f90",
    "infile_hash": "47758a0a5567afea1616d2c88b1ccfcd08a33ae79b4bb8f156f9426a",
    "outfile": null,
    "outfile_hash": null,
    "stdout": "ast-parameter_02-9547a35.stdout",
    "stdout_hash": "1ea74d359d37b09b651fa61671757340b881f4a344daeb40aff2dfd3",
    "stderr": null,
    "stderr_hash": null,
    "returncode": 0
}