{
    "basename": "ast-interface_03-c3dfda4",
    "cmd": "lfortran --show-ast --no-color {infile} -o {outfile}",
    "infile": "tests/../integration_tests/interface_03.f90",
    "infile_hash": "23a67d0f38f0787a9de82a2324e52305487cfa1700eb928a728547f1",
    "outfile": null,
    "outfile_hash": null,
    "stdout": "ast-interface_03-c3dfda4.stdout",
    "stdout_hash": "b95776ae74b34df3831207e5309e2729b5f78feeaf044a6ea95adf57",
    "stderr": null,
    "stderr_hash": null,
    "returncode": 0
}