{
    "basename": "ast-nested_01-a37fe7e",
    "cmd": "lfortran --show-ast --no-color {infile} -o {outfile}",
    "infile": "tests/../integration_tests/nested_01.f90",
    "infile_hash": "4675b48954591a1e2f73ecf9b769ca335945b16b07ff6191f1445a8f",
    "outfile": null,
    "outfile_hash": null,
    "stdout": "ast-nested_01-a37fe7e.stdout",
    "stdout_hash": "34022f9a0b5f74a6d48bfcf870ce16820e15378448f0e88370d6a833",
    "stderr": null,
    "stderr_hash": null,
    "returncode": 0
}