{
    "basename": "ast-fmt1-3196894",
    "cmd": "lfortran --show-ast --no-color {infile} -o {outfile}",
    "infile": "tests/fmt1.f90",
    "infile_hash": "cc416a9bdea43f7844e35c44673a53dda17f3037acfc76ddef6f7c48",
    "outfile": null,
    "outfile_hash": null,
    "stdout": "ast-fmt1-3196894.stdout",
    "stdout_hash": "3e7135b1eb34373466ad61604fb80cb4c4d8968e6ce09b41b03d5074",
    "stderr": null,
    "stderr_hash": null,
    "returncode": 0
}