{
    "basename": "llvm-expr3-c862c73",
    "cmd": "lfortran --show-llvm {infile} -o {outfile}",
    "infile": "tests/expr3.f90",
    "infile_hash": "a517eaea31a1369bd05123b7a3553245b6a1e560bee961b85fef4a9a",
    "outfile": null,
    "outfile_hash": null,
    "stdout": "llvm-expr3-c862c73.stdout",
    "stdout_hash": "f9b7ef904be41e43b4396c1dcc3f7522a04b6d6ed417e53fc757fbe8",
    "stderr": null,
    "stderr_hash": null,
    "returncode": 0
}