{
    "basename": "llvm-expr5-52edfcd",
    "cmd": "lfortran --show-llvm {infile} -o {outfile}",
    "infile": "tests/expr5.f90",
    "infile_hash": "030f3f956944c6d24d536fd1f434f877d95bf12aac6f367d2ad1827e",
    "outfile": null,
    "outfile_hash": null,
    "stdout": "llvm-expr5-52edfcd.stdout",
    "stdout_hash": "4635fe679c7914f094cd67bb900672416ce526a784a9ceb868a98897",
    "stderr": null,
    "stderr_hash": null,
    "returncode": 0
}