{
    "basename": "llvm-print_01-4e5501b",
    "cmd": "lfortran --show-llvm {infile} -o {outfile}",
    "infile": "tests/../integration_tests/print_01.f90",
    "infile_hash": "c59e4ce265acc9efe40d2c490822b30b8d905aeb300977872b8f835e",
    "outfile": null,
    "outfile_hash": null,
    "stdout": "llvm-print_01-4e5501b.stdout",
    "stdout_hash": "ab52c2bd039ebf50377e2b886447d0027526c982f139371aae02b689",
    "stderr": null,
    "stderr_hash": null,
    "returncode": 0
}