{
    "basename": "llvm-intrinsics_03-234fe2e",
    "cmd": "lfortran --show-llvm {infile} -o {outfile}",
    "infile": "tests/../integration_tests/intrinsics_03.f90",
    "infile_hash": "eda277452cad2d7bc3ef98963677fc276c09ce4d517756982a0d921d",
    "outfile": null,
    "outfile_hash": null,
    "stdout": "llvm-intrinsics_03-234fe2e.stdout",
    "stdout_hash": "5ad0a7dff70ef6a5cb81417b18de4e33dd0a8e1b663f5f0e4e5df2fa",
    "stderr": null,
    "stderr_hash": null,
    "returncode": 0
}