{
    "basename": "llvm-types_02-ce1aabb",
    "cmd": "lfortran --show-llvm {infile} -o {outfile}",
    "infile": "tests/../integration_tests/types_02.f90",
    "infile_hash": "6b9728dd8c74663d697504a17537aef00ed9210bf24fae6e7e0468bc",
    "outfile": null,
    "outfile_hash": null,
    "stdout": "llvm-types_02-ce1aabb.stdout",
    "stdout_hash": "aef2b684c38f26c173c1a20c1066b9f0dfb43b26bede11267c7767e6",
    "stderr": null,
    "stderr_hash": null,
    "returncode": 0
}